[
  {
    "uid": 1,
    "fullName": "Aditya Nugraha",
    "nik": "6526152678909827",
    "totalPayment": "1000000",
    "datePayment": "2020-10-23"
  },
  {
    "uid": 2,
    "fullName": "Raden Shani Permatasari",
    "nik": "6526152678909827",
    "totalPayment": "2000000",
    "datePayment": "2020-10-25"
  },
  {
    "uid": 3,
    "fullName": "Gadhafy Muhammad",
    "nik": "6526152678909827",
    "totalPayment": "2500000",
    "datePayment": "2020-10-24"
  },
  {
    "uid": 4,
    "fullName": "Virgio Pandu",
    "nik": "6526152678909827",
    "totalPayment": "1500000",
    "datePayment": "2020-10-21"
  },
  {
    "uid": 5,
    "fullName": "Muhammad Anjang Pamukti",
    "nik": "6526152678909827",
    "totalPayment": "2800000",
    "datePayment": "2020-10-20"
  }
]