{
  "uid": 1,
  "orderName": "PSL POLISI 1",
  "totalOrder": 1000,
  "notes": "Lorem Ipsum is simply dummy text of the printing and typesetting industry. Lorem Ipsum has been the industry's standard dummy text ever since the 1500s, when an unknown printer took a galley of type and scrambled it to make a type specimen book.",
  "status": 1,
  "skill": ["Potong Baju", "Potong Celana", "Jait Baju", "Jait Celana"],
  "ukuran": [
    {
      "id": 1,
      "jenisUkuran": "Ukuran Baju",
      "value": ["Panjang Badan", "Lebar Badan", "Panjang Lengan", "Lebar Lengan"]
    },
    {
      "id": 2,
      "jenisUkuran": "Ukuran Celana",
      "value": ["Panjang Kaki", "Lebar Kaki", "Panjang Paha", "Lebar Paha"]
    }
  ],
  "project": [
    {
      "uid": 1,
      "fullName": "Aditya Nugraha",
      "nip": 1111,
      "ukuranId": 1,
      "statusUkuran": 1,
      "totalUkuran": 2,
      "skillId": 1,
      "statusSkill": 1,
      "totalSkill": 2
    },
    {
      "uid": 2,
      "fullName": "Gadhafy Muhammad",
      "nip": 2222,
      "ukuranId": 1,
      "statusUkuran": 1,
      "totalUkuran": 2,
      "skillId": 1,
      "statusSkill": 1,
      "totalSkill": 2
    },
    {
      "uid": 3,
      "fullName": "Gibral Muhammad",
      "nip": 3333,
      "ukuranId": 1,
      "statusUkuran": 1,
      "totalUkuran": 2,
      "skillId": 1,
      "statusSkill": 1,
      "totalSkill": 2
    },
    {
      "uid": 4,
      "fullName": "Garinda Rachmadani",
      "nip": 4444,
      "ukuranId": 1,
      "statusUkuran": 1,
      "totalUkuran": 2,
      "skillId": 1,
      "statusSkill": 1,
      "totalSkill": 2
    },
    {
      "uid": 5,
      "fullName": "Raden Shani Permatasari",
      "nip": 5555,
      "ukuranId": 1,
      "statusUkuran": 1,
      "totalUkuran": 2,
      "skillId": 1,
      "statusSkill": 1,
      "totalSkill": 2
    }
  ]
}